%YAML 1.1
%TAG !u! tag:unity3d.com,2011:
--- !u!221 &22100000
AnimatorOverrideController:
  m_ObjectHideFlags: 0
  m_CorrespondingSourceObject: {fileID: 0}
  m_PrefabInstance: {fileID: 0}
  m_PrefabAsset: {fileID: 0}
  m_Name: dino override
  m_Controller: {fileID: 9100000, guid: 3aaced6b8cc9861419288be09845749a, type: 2}
  m_Clips:
  - m_OriginalClip: {fileID: 7400000, guid: 854c77b87c2d04a4ea09c4f82fefae01, type: 2}
    m_OverrideClip: {fileID: 7400000, guid: 03dfd9cdf57d688408b7033333fc6212, type: 2}
  - m_OriginalClip: {fileID: 7400000, guid: bd7a388c461d4a14da06894460df6bbd, type: 2}
    m_OverrideClip: {fileID: 7400000, guid: 5d835caa84cda58448e22e4dda6541d4, type: 2}
