%YAML 1.1
%TAG !u! tag:unity3d.com,2011:
--- !u!1045 &1
EditorBuildSettings:
  m_ObjectHideFlags: 0
  serializedVersion: 2
  m_Scenes:
  - enabled: 1
    path: Assets/Scenes/Levels/1-Start.unity
    guid: 78613f173332d60499646749029f9058
  - enabled: 1
    path: Assets/Scenes/Levels/2-Joungle Road.unity
    guid: 89d26b5cb7c09f14eb78f91fc396b523
  - enabled: 1
    path: Assets/Scenes/Levels/7-Volcano.unity
    guid: 654ce6a2765735b4e8ba25b0d346ccd2
  - enabled: 1
    path: Assets/Scenes/Levels/5-Factory.unity
    guid: 2e058fcd7f7ef0a4a90e3a59ecdca7c3
  - enabled: 1
    path: Assets/Scenes/Levels/3-Joungle Trees.unity
    guid: a95fb98afb62e3d4388f351d79e862bb
  - enabled: 1
    path: Assets/Scenes/Levels/6-PoisonLand.unity
    guid: 931da0de69097c949a443ed089fc3a98
  - enabled: 1
    path: Assets/Scenes/Levels/4-Cave.unity
    guid: a24248738f7a99d4db90dab4a66ab09c
  - enabled: 1
    path: Assets/Scenes/Levels/8-Mountain.unity
    guid: 3cd34d2580041ba458a74c052c90ec25
  - enabled: 1
    path: Assets/Scenes/Levels/8-2-Mountain 2.unity
    guid: 3166b1b3664e57348ac9aa2f2610c309
  - enabled: 1
    path: Assets/Scenes/Levels/9-End.unity
    guid: 3fbcfce51adc71349a5526a102ef06ac
  - enabled: 1
    path: Assets/Scenes/Levels/10-Sky End.unity
    guid: e8e1aaaa5ba17df469d4e6fe2c274245
  m_configObjects: {}
